\relax 
\@writefile{toc}{\contentsline {section}{\numberline {1}Introduction}{2}}
\@writefile{toc}{\contentsline {subsection}{\numberline {1.1}Identification}{2}}
\@writefile{toc}{\contentsline {subsection}{\numberline {1.2}Related Documentation}{2}}
\@writefile{toc}{\contentsline {subsection}{\numberline {1.3}Purpose and Description of Document}{2}}
\@writefile{toc}{\contentsline {subsection}{\numberline {1.4}Document Status and Schedule}{2}}
\@writefile{toc}{\contentsline {section}{\numberline {2}Component Diagram}{3}}
\@writefile{toc}{\contentsline {section}{\numberline {3}State Chart Diagrams}{4}}
\@writefile{toc}{\contentsline {subsection}{\numberline {3.1}Utility}{4}}
\@writefile{toc}{\contentsline {subsection}{\numberline {3.2}Advertisement}{5}}
\@writefile{toc}{\contentsline {subsection}{\numberline {3.3}Offer}{6}}
\@writefile{toc}{\contentsline {section}{\numberline {4}Class Diagrams}{7}}
\@writefile{toc}{\contentsline {subsection}{\numberline {4.1}Utility}{7}}
\@writefile{toc}{\contentsline {subsection}{\numberline {4.2}Advertisement}{8}}
\@writefile{toc}{\contentsline {subsection}{\numberline {4.3}Offer}{9}}
\@writefile{toc}{\contentsline {subsection}{\numberline {4.4}Visit}{10}}
\@writefile{toc}{\contentsline {section}{\numberline {5}System API}{11}}
\@writefile{toc}{\contentsline {subsection}{\numberline {5.1}UtilityAPI}{11}}
\@writefile{toc}{\contentsline {subsection}{\numberline {5.2}AdvertisementAPI}{13}}
\@writefile{toc}{\contentsline {subsection}{\numberline {5.3}OfferAPI}{17}}
\@writefile{toc}{\contentsline {subsection}{\numberline {5.4}VisitAPI}{19}}
\gdef \LT@i {\LT@entry 
    {1}{101.32938pt}\LT@entry 
    {1}{366.52434pt}}
\gdef \LT@ii {\LT@entry 
    {1}{101.32938pt}\LT@entry 
    {1}{366.52434pt}}
\@writefile{toc}{\contentsline {section}{\numberline {6}Testing Policy}{20}}
\@writefile{toc}{\contentsline {section}{\numberline {7}Integration Tests}{20}}
\@writefile{toc}{\contentsline {section}{\numberline {8}Regression Testing}{20}}
\@writefile{toc}{\contentsline {section}{\numberline {9}Acceptance Test Cases}{20}}
\@writefile{toc}{\contentsline {subsection}{\numberline {9.1}Utility Test Cases}{20}}
\gdef \LT@iii {\LT@entry 
    {1}{101.32938pt}\LT@entry 
    {1}{366.52434pt}}
\gdef \LT@iv {\LT@entry 
    {1}{101.32938pt}\LT@entry 
    {1}{366.52434pt}}
\gdef \LT@v {\LT@entry 
    {1}{101.32938pt}\LT@entry 
    {1}{366.52434pt}}
\@writefile{toc}{\contentsline {subsection}{\numberline {9.2}Advertisement Management Test Cases}{21}}
\gdef \LT@vi {\LT@entry 
    {1}{101.32938pt}\LT@entry 
    {1}{366.52434pt}}
\gdef \LT@vii {\LT@entry 
    {1}{101.32938pt}\LT@entry 
    {1}{366.52434pt}}
\gdef \LT@viii {\LT@entry 
    {1}{101.32938pt}\LT@entry 
    {1}{366.52434pt}}
\gdef \LT@ix {\LT@entry 
    {1}{101.32938pt}\LT@entry 
    {1}{366.52434pt}}
\gdef \LT@x {\LT@entry 
    {1}{101.32938pt}\LT@entry 
    {1}{366.52434pt}}
\gdef \LT@xi {\LT@entry 
    {1}{101.32938pt}\LT@entry 
    {1}{366.52434pt}}
\gdef \LT@xii {\LT@entry 
    {1}{101.32938pt}\LT@entry 
    {1}{366.52434pt}}
\@writefile{toc}{\contentsline {subsection}{\numberline {9.3}Offer Management Test Cases}{23}}
\@writefile{toc}{\contentsline {subsection}{\numberline {9.4}Visit Management Test Cases}{23}}
\gdef \LT@xiii {\LT@entry 
    {1}{101.32938pt}\LT@entry 
    {1}{366.52434pt}}
