\relax 
\@writefile{toc}{\contentsline {section}{\numberline {1}Introduction}{2}}
\@writefile{toc}{\contentsline {subsection}{\numberline {1.1}Identification}{2}}
\@writefile{toc}{\contentsline {subsection}{\numberline {1.2}Related Documentation}{2}}
\@writefile{toc}{\contentsline {subsection}{\numberline {1.3}Purpose and Description of Document}{2}}
\@writefile{toc}{\contentsline {subsection}{\numberline {1.4}Document Status and Schedule}{2}}
\@writefile{toc}{\contentsline {section}{\numberline {2}Component Diagram}{4}}
\@writefile{toc}{\contentsline {section}{\numberline {3}State Chart Diagrams}{5}}
\@writefile{toc}{\contentsline {subsection}{\numberline {3.1}Utility}{5}}
\@writefile{toc}{\contentsline {subsection}{\numberline {3.2}Advertisement}{6}}
\@writefile{toc}{\contentsline {subsection}{\numberline {3.3}Offer}{7}}
\@writefile{toc}{\contentsline {section}{\numberline {4}Class Diagrams}{8}}
\@writefile{toc}{\contentsline {subsection}{\numberline {4.1}Utility}{8}}
\@writefile{toc}{\contentsline {subsection}{\numberline {4.2}Advertisement}{9}}
\@writefile{toc}{\contentsline {subsection}{\numberline {4.3}Offer}{10}}
\@writefile{toc}{\contentsline {subsection}{\numberline {4.4}Visit}{11}}
\@writefile{toc}{\contentsline {section}{\numberline {5}System API}{12}}
\@writefile{toc}{\contentsline {subsection}{\numberline {5.1}UtilityAPI}{12}}
\@writefile{toc}{\contentsline {subsection}{\numberline {5.2}AdvertisementAPI}{14}}
\@writefile{toc}{\contentsline {subsection}{\numberline {5.3}OfferAPI}{18}}
\@writefile{toc}{\contentsline {subsection}{\numberline {5.4}VisitAPI}{20}}
\gdef \LT@i {\LT@entry 
    {1}{101.32938pt}\LT@entry 
    {1}{366.52434pt}}
\gdef \LT@ii {\LT@entry 
    {1}{101.32938pt}\LT@entry 
    {1}{366.52434pt}}
\@writefile{toc}{\contentsline {section}{\numberline {6}Testing Policy}{21}}
\@writefile{toc}{\contentsline {section}{\numberline {7}Integration Tests}{21}}
\@writefile{toc}{\contentsline {section}{\numberline {8}Regression Testing}{21}}
\@writefile{toc}{\contentsline {section}{\numberline {9}Acceptance Test Cases}{21}}
\@writefile{toc}{\contentsline {subsection}{\numberline {9.1}Utility Test Cases}{21}}
\gdef \LT@iii {\LT@entry 
    {1}{101.32938pt}\LT@entry 
    {1}{366.52434pt}}
\gdef \LT@iv {\LT@entry 
    {1}{101.32938pt}\LT@entry 
    {1}{366.52434pt}}
\gdef \LT@v {\LT@entry 
    {1}{101.32938pt}\LT@entry 
    {1}{366.52434pt}}
\gdef \LT@vi {\LT@entry 
    {1}{101.32938pt}\LT@entry 
    {1}{366.52434pt}}
\gdef \LT@vii {\LT@entry 
    {1}{101.32938pt}\LT@entry 
    {1}{366.52434pt}}
\gdef \LT@viii {\LT@entry 
    {1}{101.32938pt}\LT@entry 
    {1}{366.52434pt}}
\gdef \LT@ix {\LT@entry 
    {1}{101.32938pt}\LT@entry 
    {1}{366.52434pt}}
\gdef \LT@x {\LT@entry 
    {1}{101.32938pt}\LT@entry 
    {1}{366.52434pt}}
\@writefile{toc}{\contentsline {subsection}{\numberline {9.2}Advertisement Management Test Cases}{24}}
\gdef \LT@xi {\LT@entry 
    {1}{101.32938pt}\LT@entry 
    {1}{366.52434pt}}
\gdef \LT@xii {\LT@entry 
    {1}{101.32938pt}\LT@entry 
    {1}{366.52434pt}}
\gdef \LT@xiii {\LT@entry 
    {1}{101.32938pt}\LT@entry 
    {1}{366.52434pt}}
\gdef \LT@xiv {\LT@entry 
    {1}{101.32938pt}\LT@entry 
    {1}{366.52434pt}}
\@writefile{toc}{\contentsline {subsection}{\numberline {9.3}Offer Management Test Cases}{26}}
\gdef \LT@xv {\LT@entry 
    {1}{101.32938pt}\LT@entry 
    {1}{366.52434pt}}
\gdef \LT@xvi {\LT@entry 
    {1}{101.32938pt}\LT@entry 
    {1}{366.52434pt}}
\@writefile{toc}{\contentsline {subsection}{\numberline {9.4}Visit Management Test Cases}{27}}
\@writefile{toc}{\contentsline {section}{\numberline {10}Acceptance Test Report}{28}}
\@writefile{toc}{\contentsline {subsection}{\numberline {10.1}Test case execution and correctness}{28}}
\@writefile{toc}{\contentsline {subsection}{\numberline {10.2}Test case implementation}{29}}
\@writefile{toc}{\contentsline {section}{\numberline {11}Maintenance Report}{35}}
